Time(s),Input(v),Output(v),Output(m)
3.7,2.476,0.000,0.000
3.8,2.480,0.000,0.000
3.9,2.476,0.000,0.000
4,2.480,0.000,0.000
4.1,2.480,0.000,0.000
4.2,2.466,0.000,0.000
4.3,2.471,0.000,0.000
4.4,2.471,0.000,0.000
4.5,2.471,0.000,0.000
4.6,2.471,0.000,0.000
4.7,2.476,0.000,0.000
4.8,2.471,0.000,0.000
4.9,2.471,0.000,0.000
5,2.471,0.000,0.000
5.1,2.476,0.000,0.000
5.2,2.471,0.000,0.000
5.3,2.480,0.000,0.000
5.4,2.480,0.000,0.000
5.5,2.476,0.000,0.000
5.6,2.476,0.000,0.000
5.7,2.476,0.000,0.000
5.8,2.471,0.000,0.000
5.9,2.476,0.000,0.000
5.99999999999999,2.480,0.000,0.000
6.09999999999999,2.476,0.000,0.000
6.19999999999999,2.476,0.000,0.000
6.29999999999999,2.476,0.000,0.000
6.39999999999999,2.480,0.000,0.000
6.49999999999999,2.476,0.000,0.000
6.59999999999999,2.476,0.000,0.000
6.69999999999999,5.000,0.000,0.000
6.79999999999999,5.000,0.021,0.039
6.89999999999999,5.000,0.064,0.116
6.99999999999999,5.000,0.128,0.232
7.09999999999999,5.000,0.212,0.386
7.19999999999999,5.000,0.318,0.578
7.29999999999999,5.000,0.444,0.807
7.39999999999999,5.000,0.591,1.074
7.49999999999999,5.000,0.758,1.378
7.59999999999999,5.000,0.945,1.718
7.69999999999999,5.000,1.152,2.095
7.79999999999999,5.000,1.379,2.508
7.89999999999999,5.000,1.626,2.957
7.99999999999999,5.000,1.893,3.442
8.09999999999999,5.000,2.179,3.963
8.19999999999999,5.000,2.485,4.518
8.29999999999999,5.000,2.810,5.109
8.39999999999999,5.000,3.154,5.734
8.49999999999999,5.000,3.517,6.394
8.59999999999999,5.000,3.899,7.088
8.69999999999999,5.000,4.299,7.817
8.79999999999998,5.000,4.718,8.579
8.89999999999998,5.000,5.156,9.374
8.99999999999998,5.000,5.612,10.203
9.09999999999998,5.000,6.086,11.065
9.19999999999998,5.000,6.578,11.960
9.29999999999998,5.000,7.088,12.887
9.39999999999998,5.000,7.616,13.847
9.49999999999998,5.000,8.162,14.839
9.59999999999998,5.000,8.725,15.863
9.69999999999998,5.000,9.305,16.919
9.79999999999998,5.000,9.903,18.006
9.89999999999998,5.000,10.000,19.125
9.99999999999998,5.000,10.000,20.274
10.1,5.000,10.000,21.454
10.2,5.000,10.000,22.665
10.3,5.000,10.000,23.907
10.4,5.000,10.000,25.178
10.5,5.000,10.000,26.480
10.6,5.000,10.000,27.811
10.7,5.000,10.000,29.172
10.8,5.000,10.000,30.562
10.9,5.000,10.000,31.982
11,5.000,10.000,33.430
11.1,5.000,10.000,34.907
11.2,5.000,10.000,36.413
11.3,5.000,10.000,37.947
11.4,5.000,10.000,39.509
11.5,5.000,10.000,41.099
11.6,5.000,10.000,42.717
11.7,5.000,10.000,44.362
11.8,5.000,10.000,46.035
11.9,5.000,10.000,47.735
12,5.000,10.000,49.462
12.1,5.000,10.000,51.215
12.2,5.000,10.000,52.996
12.3,5.000,10.000,54.802
12.4,5.000,10.000,56.635
12.5,5.000,10.000,58.494
12.6,5.000,10.000,60.379
12.7,5.000,10.000,62.290
12.8,5.000,10.000,64.226
12.9,5.000,10.000,66.187
13,5.000,10.000,68.173
13.1,5.000,10.000,70.185
13.2,5.000,10.000,72.221
13.3,5.000,10.000,74.282
13.4,5.000,10.000,76.367
13.5,5.000,10.000,78.477
13.6,5.000,10.000,80.611
13.7,5.000,10.000,82.768
13.8,5.000,10.000,84.950
13.9,5.000,10.000,87.155
14,5.000,10.000,89.383
14.1,5.000,10.000,91.635
14.2,5.000,10.000,93.910
14.3,5.000,10.000,96.208
14.4,5.000,10.000,98.529
14.5,5.000,10.000,100.872
14.6,5.000,10.000,103.238
14.7,5.000,10.000,105.626
14.8,5.000,10.000,108.036
14.9,5.000,10.000,110.468
15,5.000,10.000,112.922
15.1,5.000,10.000,115.398
15.2,5.000,10.000,117.895
15.3,5.000,10.000,120.414
15.4,5.000,10.000,122.954
15.5,5.000,10.000,125.515
15.6,5.000,10.000,128.097
15.7,5.000,10.000,130.699
15.8,5.000,10.000,133.323
15.9,5.000,10.000,135.967
16,5.000,10.000,138.631
16.1,5.000,10.000,141.315
16.2,5.000,10.000,144.020
16.3,5.000,10.000,146.744
16.4,5.000,10.000,149.489
16.5,5.000,10.000,152.253
16.6,5.000,10.000,155.036
16.7,5.000,10.000,157.839
16.8,5.000,10.000,160.661
16.9,5.000,10.000,163.503
17,5.000,10.000,166.363
17.1,5.000,10.000,169.242
17.2,5.000,10.000,172.140
17.3,5.000,10.000,175.056
17.4,5.000,10.000,177.991
17.5,5.000,10.000,180.944
17.6,5.000,10.000,183.915
17.7,5.000,10.000,186.905
17.8,5.000,10.000,189.912
17.9,5.000,10.000,192.937
18,5.000,10.000,195.980
18.1,5.000,10.000,199.041
18.2,5.000,10.000,202.118
18.3,5.000,10.000,205.214
18.4,5.000,10.000,208.326
18.5,5.000,10.000,211.456
18.6,5.000,10.000,214.602
18.7,5.000,10.000,217.765
18.8,5.000,10.000,220.945
18.9,5.000,10.000,224.142
19,5.000,10.000,227.355
19.1,5.000,10.000,230.585
19.2,5.000,10.000,233.830
19.3,5.000,10.000,237.092
19.4,5.000,10.000,240.370
19.5,5.000,10.000,243.664
19.6,5.000,10.000,246.974
19.7,5.000,10.000,250.299
19.8,5.000,10.000,253.640
19.9,5.000,10.000,256.996
20,5.000,10.000,260.368
20.1,5.000,10.000,263.755
20.2,5.000,10.000,267.157
20.3,5.000,10.000,270.574
20.4,5.000,10.000,274.007
20.5,5.000,10.000,277.454
20.6,5.000,10.000,280.915
20.7,5.000,10.000,284.392
20.8,5.000,10.000,287.883
20.9,5.000,10.000,291.388
21,5.000,10.000,294.908
21.1,5.000,10.000,298.442
21.2,5.000,10.000,301.990
21.3,5.000,10.000,305.552
21.4,5.000,10.000,309.128
21.5,5.000,10.000,312.718
21.6,5.000,10.000,316.321
21.7,5.000,10.000,319.938
21.8,5.000,10.000,323.569
21.9,5.000,10.000,327.213
22,5.000,10.000,330.871
22.1,5.000,10.000,334.542
22.2,5.000,10.000,338.226
22.3,5.000,10.000,341.923
22.4,5.000,10.000,345.633
22.5000000000001,5.000,10.000,349.355
22.6000000000001,5.000,10.000,353.091
22.7000000000001,5.000,10.000,356.840
22.8000000000001,5.000,10.000,360.601
22.9000000000001,5.000,10.000,364.374
23.0000000000001,5.000,10.000,368.160
23.1000000000001,5.000,10.000,371.959
23.2000000000001,5.000,10.000,375.769
23.3000000000001,5.000,10.000,379.592
23.4000000000001,5.000,10.000,383.427
23.5000000000001,5.000,10.000,387.274
23.6000000000001,5.000,10.000,391.133
23.7000000000001,5.000,10.000,395.004
23.8000000000001,5.000,10.000,398.886
23.9000000000001,5.000,10.000,402.780
24.0000000000001,5.000,10.000,406.686
24.1000000000001,5.000,10.000,410.603
24.2000000000001,5.000,10.000,414.532
24.3000000000001,5.000,10.000,418.472
24.4000000000001,5.000,10.000,422.424
24.5000000000001,5.000,10.000,426.386
24.6000000000001,5.000,10.000,430.360
24.7000000000001,5.000,10.000,434.345
24.8000000000001,5.000,10.000,438.340
24.9000000000001,5.000,10.000,442.347
25.0000000000001,5.000,10.000,446.364
25.1000000000001,5.000,10.000,450.392
25.2000000000001,5.000,10.000,454.431
